…
    ## `summarise()` has grouped output by 'raceId'. You can override using the
    ## `.groups` argument.

``` r
print(avg_pit_stops, n=50)
```

    ## # A tibble: 4,701 × 5
    ## # Groups:   raceId [239]
    ##    raceId driverId meanduration_secs forename   surname    
    ##     <int>    <int>             <dbl> <chr>      <chr>      
    ##  1    841        1              23.2 Lewis      Hamilton   
    ##  2    841        2              24.0 Nick       Heidfeld   
    ##  3    841        3              23.7 Nico       Rosberg    
    ##  4    841        4              24.1 Fernando   Alonso     
    ##  5    841        5              24.9 Heikki     Kovalainen 
    ##  6    841       10              23.8 Timo       Glock      
    ##  7    841       13              24.1 Felipe     Massa      
    ##  8    841       15              24.9 Jarno      Trulli     
    ##  9    841       16              24.9 Adrian     Sutil      
    ## 10    841       17              24.1 Mark       Webber     
    ## 11    841       18              21.0 Jenson     Button     
    ## 12    841       20              23.3 Sebastian  Vettel     
    ## 13    841       22              26.2 Rubens     Barrichello
    ## 14    841       30              24.5 Michael    Schumacher 
    ## 15    841       67              24.2 Sébastien  Buemi      
    ## 16    841      153              25.9 Jaime      Alguersuari
    ## 17    841      155              24.1 Kamui      Kobayashi  
    ## 18    841      808              25.1 Vitaly     Petrov     
    ## 19    841      814              24.6 Paul       di Resta   
    ## 20    841      815              23.4 Sergio     Pérez      
    ## 21    841      816              25.9 Jérôme     d'Ambrosio 
    ## 22    842        1              23.3 Lewis      Hamilton   
    ## 23    842        2              23.2 Nick       Heidfeld   
    ## 24    842        3              23.4 Nico       Rosberg    
    ## 25    842        4              24.5 Fernando   Alonso     
    ## 26    842        5              26.2 Heikki     Kovalainen 
    ## 27    842       10              24.5 Timo       Glock      
    ## 28    842       13              24.9 Felipe     Massa      
    ## 29    842       15              25.5 Jarno      Trulli     
    ## 30    842       16              25.4 Adrian     Sutil      
    ## 31    842       17              22.2 Mark       Webber     
    ## 32    842       18              22.5 Jenson     Button     
    ## 33    842       20              22.4 Sebastian  Vettel     
    ## 34    842       22              28.7 Rubens     Barrichello
    ## 35    842       24              31.1 Vitantonio Liuzzi     
    ## 36    842       30              22.4 Michael    Schumacher 
    ## 37    842       67              26.9 Sébastien  Buemi      
    ## 38    842      153              23.2 Jaime      Alguersuari
    ## 39    842      155              23.4 Kamui      Kobayashi  
    ## 40    842      808              24.9 Vitaly     Petrov     
    ## 41    842      814              23.1 Paul       di Resta   
    ## 42    842      815              23.6 Sergio     Pérez      
    ## 43    842      816              25.3 Jérôme     d'Ambrosio 
    ## 44    843        1              20.7 Lewis      Hamilton   
    ## 45    843        2              22.0 Nick       Heidfeld   
    ## 46    843        3              21.2 Nico       Rosberg    
    ## 47    843        4              21.9 Fernando   Alonso     
    ## 48    843        5              22.2 Heikki     Kovalainen 
    ## 49    843       10              26.1 Timo       Glock      
    ## 50    843       13              21.4 Felipe     Massa      
    ## # … with 4,651 more rows
…
